emi tanaka - Maximum potential
…
    33 
    Matt Keetley 
    G 
    R 
    6.166667 
    189 
    1986-04-27 
    Medicine Hat, AB 

Table @ref(tab:hat-tigers) data is stored in object mht2007.

print(mht2007, width = 30)

# A tibble: 25 × 8
      No Name     Pos   Shoots
   <dbl> <chr>    <chr> <chr> 
 1     9 Brennan… C     R     
 2    11 Scott W… C     R     
 3    12 Colton … LW    L     
 4    14 Darren … LW    L     
 5    15 Derek D… RW    L     
 6    16 Daine T… C     R     
 7    17 Tyler S… RW    R     
 8    19 Matt Lo… C     R     
 9    20 Kevin U… LW    L     
10    21 Jerrid … RW    R     
# … with 15 more rows, and 4
#   more variables:
#   Height <dbl>,
#   Weight <dbl>,
#   Birthdate <date>,
#   Hometown <chr>
# ℹ Use `print(n = ...)` to see more rows, and `colnames()` to see all variable names
…
